<svg width="26" height="26" viewBox="0 0 26 26" fill="none" xmlns="http://www.w3.org/2000/svg">
<path d="M22.5 12.134C23.1667 12.5189 23.1667 13.4811 22.5 13.866L9 21.6603C8.33334 22.0452 7.5 21.564 7.5 20.7942L7.5 5.20577C7.5 4.43597 8.33333 3.95485 9 4.33975L22.5 12.134Z" fill="#425A20"/>
<path d="M22.1785 10.5673C22.7241 10.756 22.8608 11.4646 22.4246 11.8428L10.5175 22.1652C10.0813 22.5434 9.39926 22.3075 9.28986 21.7406L6.30391 6.26759C6.19451 5.7007 6.73982 5.22797 7.28546 5.41667L22.1785 10.5673Z" stroke="black" stroke-width="0.5"/>
</svg>
